
type 1 side 0
[1,15]((-0.25000,-0.12500,-0.12500,0.00000,-0.12500,-0.12500,0.16667,0.08333,0.08333,0.00000,0.10938,0.10938,-0.10000,-0.05000,-0.05000))
[1,45]((0.00000,-0.25000,-0.25000,0.25000,0.00000,0.00000,0.25000,0.00000,0.00000,-0.50000,-0.25000,-0.25000,-0.25000,0.00000,0.00000,-0.25000,0.00000,0.00000,0.00000,-0.04167,-0.04167,-0.16667,-0.10417,-0.10417,-0.16667,-0.10417,-0.10417,0.62500,0.31250,0.31250,0.31250,0.04688,0.04688,0.31250,0.04688,0.04688,0.00000,0.23750,0.23750,0.10000,0.16875,0.16875,0.10000,0.16875,0.16875))

type 1 side 1
[1,15]((0.12500,-0.12500,0.00000,0.12500,0.12500,0.00000,-0.08333,0.08333,0.00000,-0.10938,-0.10938,0.00000,0.05000,-0.05000,0.00000))
[1,45]((0.00000,-0.25000,0.00000,0.25000,0.00000,0.00000,0.00000,0.00000,0.00000,0.00000,0.25000,0.00000,0.25000,0.00000,0.00000,0.00000,0.00000,0.00000,-0.10417,0.06250,0.00000,-0.06250,0.10417,0.00000,0.00000,0.00000,0.00000,0.04688,-0.26562,0.00000,-0.26562,0.04688,0.00000,0.00000,0.00000,0.00000,0.16875,0.06875,0.00000,-0.06875,-0.16875,0.00000,0.00000,0.00000,0.00000))

type 1 side 2
[1,15]((0.12500,0.25000,0.12500,-0.12500,0.00000,-0.12500,-0.08333,-0.16667,-0.08333,0.10938,0.00000,0.10938,0.05000,0.10000,0.05000))
[1,45]((0.00000,-0.25000,0.00000,0.25000,0.00000,0.25000,0.00000,-0.25000,0.00000,0.00000,-0.25000,0.00000,-0.25000,-0.50000,-0.25000,0.00000,-0.25000,0.00000,0.10417,0.16667,0.10417,0.04167,0.00000,0.04167,0.10417,0.16667,0.10417,0.04688,0.31250,0.04688,0.31250,0.62500,0.31250,0.04688,0.31250,0.04688,-0.16875,-0.10000,-0.16875,-0.23750,0.00000,-0.23750,-0.16875,-0.10000,-0.16875))

type 1 side 3
[1,15]((-0.12500,-0.12500,-0.25000,-0.12500,-0.12500,0.00000,0.08333,0.08333,0.16667,0.10938,0.10938,0.00000,-0.05000,-0.05000,-0.10000))
[1,45]((0.00000,0.00000,0.25000,0.00000,0.00000,0.25000,-0.25000,-0.25000,0.00000,0.00000,0.00000,-0.25000,0.00000,0.00000,-0.25000,-0.25000,-0.25000,-0.50000,-0.10417,-0.10417,-0.16667,-0.10417,-0.10417,-0.16667,-0.04167,-0.04167,0.00000,0.04688,0.04688,0.31250,0.04688,0.04688,0.31250,0.31250,0.31250,0.62500,0.16875,0.16875,0.10000,0.16875,0.16875,0.10000,0.23750,0.23750,0.00000))

type 1 side 4
[1,15]((0.12500,0.00000,-0.12500,0.12500,0.00000,0.12500,-0.08333,0.00000,0.08333,-0.10938,0.00000,-0.10938,0.05000,0.00000,-0.05000))
[1,45]((0.00000,0.00000,-0.25000,0.00000,0.00000,0.00000,0.25000,0.00000,0.00000,0.00000,0.00000,0.25000,0.00000,0.00000,0.00000,0.25000,0.00000,0.00000,-0.10417,0.00000,0.06250,0.00000,0.00000,0.00000,-0.06250,0.00000,0.10417,0.04688,0.00000,-0.26562,0.00000,0.00000,0.00000,-0.26562,0.00000,0.04688,0.16875,0.00000,0.06875,0.00000,0.00000,0.00000,-0.06875,0.00000,-0.16875))

type 1 side 5
[1,15]((0.00000,0.12500,-0.12500,0.00000,0.12500,0.12500,0.00000,-0.08333,0.08333,0.00000,-0.10938,-0.10938,0.00000,0.05000,-0.05000))
[1,45]((0.00000,0.00000,0.00000,0.00000,0.00000,-0.25000,0.00000,0.25000,0.00000,0.00000,0.00000,0.00000,0.00000,0.00000,0.25000,0.00000,0.25000,0.00000,0.00000,0.00000,0.00000,0.00000,-0.10417,0.06250,0.00000,-0.06250,0.10417,0.00000,0.00000,0.00000,0.00000,0.04688,-0.26562,0.00000,-0.26562,0.04688,0.00000,0.00000,0.00000,0.00000,0.16875,0.06875,0.00000,-0.06875,-0.16875))

type 2 side 0
[1,45]((0.00000,0.00000,0.03125,-0.03125,-0.03125,-0.03125,0.03125,0.00000,0.00000,0.00000,0.00000,0.00000,0.00000,0.00000,0.00000,0.00000,0.00000,0.00000,0.01562,0.00781,0.00781,0.00781,0.00781,0.01562,0.00000,0.00000,-0.01562,0.01562,0.01562,0.01562,-0.01562,0.00000,0.00000,0.00000,0.00000,0.00000,0.00000,0.00000,0.00000,0.00000,0.00000,0.00000,0.00000,0.00000,0.00000))
[1,135]((0.00000,0.00000,0.00000,0.00000,0.00000,-0.06250,0.00000,0.00000,-0.06250,-0.06250,-0.06250,-0.06250,0.00000,0.00000,0.00000,-0.06250,-0.06250,-0.06250,-0.06250,0.00000,0.00000,-0.06250,0.00000,0.00000,0.00000,0.00000,0.00000,0.00000,0.00000,0.03125,0.00000,0.00000,0.01562,0.00000,0.00000,0.01562,0.01562,0.01562,0.01562,0.00000,0.00000,0.00000,-0.01562,-0.01562,-0.01562,-0.01562,0.00000,0.00000,-0.01562,0.00000,0.00000,-0.03125,0.00000,0.00000,0.00000,0.00000,0.00000,-0.03125,-0.01562,-0.01562,0.00000,0.00000,0.00000,0.00000,0.00000,0.00000,-0.01562,-0.01562,-0.03125,0.00000,0.00000,0.00000,0.00000,0.00000,0.00000,0.00000,0.00000,0.03125,0.00000,0.00000,0.03125,0.03125,0.03125,0.03125,0.00000,0.00000,0.00000,0.03125,0.03125,0.03125,0.03125,0.00000,0.00000,0.03125,0.00000,0.00000,0.00000,0.00000,0.00000,0.00781,0.00391,0.00391,0.00781,0.00391,0.00391,0.01562,0.00781,0.00781,0.00391,0.00391,0.00781,0.00391,0.00391,0.00781,0.00781,0.00781,0.01562,0.01562,0.00781,0.00781,0.00781,0.00391,0.00391,0.00781,0.00391,0.00391,0.00781,0.00781,0.01562,0.00391,0.00391,0.00781,0.00391,0.00391,0.00781))

type 2 side 1
[1,45]((0.00000,0.00000,0.03125,0.03125,0.00000,0.00000,0.00000,0.03125,0.00000,0.00000,0.00000,0.00000,0.00000,0.00000,0.00000,0.00000,0.00000,0.00000,-0.00781,0.00781,0.00000,-0.00781,0.00000,0.00781,0.00000,0.00000,-0.01562,-0.01562,0.00000,0.00000,0.00000,-0.01562,0.00000,0.00000,0.00000,0.00000,0.00000,0.00000,0.00000,0.00000,0.00000,0.00000,0.00000,0.00000,0.00000))
[1,135]((0.00000,0.00000,0.06250,0.00000,0.00000,0.06250,0.00000,0.00000,0.00000,0.00000,0.00000,0.00000,0.06250,0.00000,0.00000,0.06250,0.00000,0.00000,0.00000,0.06250,0.00000,0.00000,0.00000,0.00000,0.00000,0.06250,0.00000,0.00000,0.00000,-0.01562,0.00000,0.00000,0.01562,0.00000,0.00000,0.00000,0.00000,0.00000,0.00000,-0.01562,0.00000,0.00000,0.01562,0.00000,0.00000,0.00000,0.01562,0.00000,0.00000,0.00000,0.00000,0.00000,-0.01562,0.00000,-0.01562,0.01562,0.00000,-0.01562,0.01562,0.00000,-0.01562,0.01562,0.00000,-0.01562,0.00000,0.01562,-0.01562,0.00000,0.01562,-0.01562,0.00000,0.01562,0.00000,0.00000,-0.03125,0.00000,0.00000,-0.03125,0.00000,0.00000,0.00000,0.00000,0.00000,0.00000,-0.03125,0.00000,0.00000,-0.03125,0.00000,0.00000,0.00000,-0.03125,0.00000,0.00000,0.00000,0.00000,0.00000,-0.03125,0.00000,0.00391,-0.00391,0.00000,0.00000,0.00000,0.00000,-0.00391,0.00391,0.00000,0.00391,0.00000,-0.00391,0.00000,0.00000,0.00000,-0.00391,0.00000,0.00391,0.00391,-0.00391,0.00000,-0.00391,0.00391,0.00000,0.00000,0.00000,0.00000,0.00391,0.00000,-0.00391,-0.00391,0.00000,0.00391,0.00000,0.00000,0.00000))

type 2 side 2
[1,45]((0.00000,0.03125,0.00000,-0.03125,-0.03125,-0.03125,0.00000,0.00000,0.03125,0.00000,0.00000,0.00000,0.00000,0.00000,0.00000,0.00000,0.00000,0.00000,0.00781,0.00781,0.01562,0.00781,0.01562,0.00781,0.00000,-0.01562,0.00000,0.01562,0.01562,0.01562,0.00000,0.00000,-0.01562,0.00000,0.00000,0.00000,0.00000,0.00000,0.00000,0.00000,0.00000,0.00000,0.00000,0.00000,0.00000))
[1,135]((0.00000,-0.06250,0.00000,0.00000,-0.06250,0.00000,0.00000,0.00000,0.00000,0.00000,0.00000,0.00000,-0.06250,-0.06250,-0.06250,-0.06250,-0.06250,-0.06250,0.00000,0.00000,-0.06250,0.00000,0.00000,0.00000,0.00000,0.00000,-0.06250,0.00000,0.01562,0.00000,0.00000,0.01562,0.00000,0.00000,0.03125,0.00000,0.00000,0.00000,0.00000,-0.01562,-0.01562,-0.01562,0.01562,0.01562,0.01562,0.00000,0.00000,-0.01562,0.00000,0.00000,-0.03125,0.00000,0.00000,-0.01562,-0.01562,-0.01562,-0.03125,0.00000,0.00000,0.00000,0.00000,0.00000,0.00000,-0.01562,-0.03125,-0.01562,0.00000,0.00000,0.00000,0.00000,0.00000,0.00000,0.00000,0.03125,0.00000,0.00000,0.03125,0.00000,0.00000,0.00000,0.00000,0.00000,0.00000,0.00000,0.03125,0.03125,0.03125,0.03125,0.03125,0.03125,0.00000,0.00000,0.03125,0.00000,0.00000,0.00000,0.00000,0.00000,0.03125,0.00391,0.00391,0.00781,0.00781,0.00781,0.01562,0.00391,0.00391,0.00781,0.00391,0.00781,0.00391,0.00781,0.01562,0.00781,0.00391,0.00781,0.00391,0.00391,0.00391,0.00781,0.00391,0.00391,0.00781,0.00781,0.00781,0.01562,0.00391,0.00781,0.00391,0.00391,0.00781,0.00391,0.00781,0.01562,0.00781))

type 2 side 3
[1,45]((0.03125,0.00000,0.00000,-0.03125,-0.03125,-0.03125,0.00000,0.03125,0.00000,0.00000,0.00000,0.00000,0.00000,0.00000,0.00000,0.00000,0.00000,0.00000,0.00781,0.01562,0.00781,0.01562,0.00781,0.00781,-0.01562,0.00000,0.00000,0.01562,0.01562,0.01562,0.00000,-0.01562,0.00000,0.00000,0.00000,0.00000,0.00000,0.00000,0.00000,0.00000,0.00000,0.00000,0.00000,0.00000,0.00000))
[1,135]((-0.06250,0.00000,0.00000,0.00000,0.00000,0.00000,-0.06250,0.00000,0.00000,-0.06250,-0.06250,-0.06250,-0.06250,-0.06250,-0.06250,0.00000,0.00000,0.00000,0.00000,0.00000,0.00000,0.00000,-0.06250,0.00000,0.00000,-0.06250,0.00000,0.01562,0.00000,0.00000,0.03125,0.00000,0.00000,0.01562,0.00000,0.00000,-0.01562,-0.01562,-0.01562,0.01562,0.01562,0.01562,0.00000,0.00000,0.00000,0.00000,-0.03125,0.00000,0.00000,-0.01562,0.00000,0.00000,-0.01562,0.00000,0.00000,0.00000,0.00000,0.00000,0.00000,0.00000,-0.01562,-0.03125,-0.01562,0.00000,0.00000,0.00000,0.00000,0.00000,0.00000,-0.03125,-0.01562,-0.01562,0.03125,0.00000,0.00000,0.00000,0.00000,0.00000,0.03125,0.00000,0.00000,0.03125,0.03125,0.03125,0.03125,0.03125,0.03125,0.00000,0.00000,0.00000,0.00000,0.00000,0.00000,0.00000,0.03125,0.00000,0.00000,0.03125,0.00000,0.00781,0.01562,0.00781,0.00391,0.00781,0.00391,0.00391,0.00781,0.00391,0.01562,0.00781,0.00781,0.00781,0.00391,0.00391,0.00781,0.00391,0.00391,0.00391,0.00781,0.00391,0.00781,0.01562,0.00781,0.00391,0.00781,0.00391,0.00781,0.00391,0.00391,0.01562,0.00781,0.00781,0.00781,0.00391,0.00391))

type 5 side 0
[1,45]((0.00000,0.00781,0.00000,-0.00781,-0.00781,-0.00781,0.00781,0.00000,0.00000,0.00000,0.00000,0.00781,0.00000,0.00000,0.00000,0.00000,0.00000,0.00000,0.00000,0.00000,0.00000,0.00000,0.00000,0.00000,0.00000,0.00000,0.00000,0.00000,0.00000,0.00000,0.00000,0.00000,0.00000,0.00000,0.00000,0.00000,0.00195,0.00000,0.00000,0.00000,0.00195,0.00000,0.00000,0.00000,0.00195))
[1,135]((0.00000,0.00000,0.00000,0.00000,-0.01562,0.00000,0.00000,0.00000,0.00000,-0.01562,-0.01562,-0.01562,-0.01562,-0.01562,-0.01562,-0.01562,-0.01562,-0.01562,-0.01562,0.00000,0.00000,0.00000,0.00000,0.00000,0.00000,0.00000,0.00000,0.00000,0.00000,0.00000,0.00000,0.00000,0.00000,0.00000,0.00000,-0.01562,0.00000,0.00391,0.00000,0.00000,0.00391,0.00000,0.00000,0.00781,0.00000,0.00391,0.00391,0.00391,0.00000,0.00000,0.00000,-0.00391,-0.00391,-0.00391,0.00391,0.00000,0.00000,0.00391,0.00000,0.00000,0.00781,0.00000,0.00000,0.00000,0.00000,0.00391,0.00000,0.00000,0.00781,0.00000,0.00000,0.00391,0.00000,0.00781,0.00000,0.00000,0.00391,0.00000,0.00000,0.00391,0.00000,0.00391,0.00391,0.00391,-0.00391,-0.00391,-0.00391,0.00000,0.00000,0.00000,0.00391,0.00000,0.00000,0.00781,0.00000,0.00000,0.00391,0.00000,0.00000,0.00000,0.00000,0.00781,0.00000,0.00000,0.00391,0.00000,0.00000,0.00391,0.00000,0.00000,0.00000,0.00000,0.00000,0.00000,0.00000,0.00000,0.00000,0.00000,0.00000,0.00000,0.00000,0.00000,0.00000,0.00000,0.00000,0.00000,0.00000,0.00000,0.00000,0.00000,0.00000,0.00000,0.00000,0.00000,0.00000))

type 1 side 0
[1,15]((-0.33333,0.00000,-0.16667,0.00000,0.00000,-0.16667,0.22222,0.00000,0.11111,0.00000,0.00000,0.14583,-0.13333,0.00000,-0.06667))
[1,30]((0.00000,0.00000,-0.50000,0.50000,0.00000,0.00000,-1.00000,-0.00000,-0.50000,-0.50000,-0.00000,0.00000,0.00000,0.00000,-0.22222,-0.33333,-0.00000,-0.27778,1.37500,0.00000,0.68750,0.68750,0.00000,0.12500,0.00000,0.00000,0.70000,0.20000,0.00000,0.45000))

type 1 side 1
[1,15]((0.16667,0.00000,-0.16667,0.16667,0.00000,0.16667,-0.11111,0.00000,0.11111,-0.14583,0.00000,-0.14583,0.06667,0.00000,-0.06667))
[1,30]((0.00000,0.00000,-0.50000,0.50000,0.00000,0.00000,0.00000,0.00000,0.50000,0.50000,0.00000,0.00000,-0.27778,0.00000,0.05556,-0.05556,0.00000,0.27778,0.12500,0.00000,-0.56250,-0.56250,0.00000,0.12500,0.45000,0.00000,0.25000,-0.25000,-0.00000,-0.45000))

type 1 side 2
[1,15]((-0.16667,0.00000,-0.33333,-0.16667,0.00000,0.00000,0.11111,0.00000,0.22222,0.14583,0.00000,0.00000,-0.06667,0.00000,-0.13333))
[1,30]((0.00000,0.00000,0.50000,-0.50000,-0.00000,0.00000,0.00000,-0.00000,-0.50000,-0.50000,-0.00000,-1.00000,-0.27778,-0.00000,-0.33333,-0.22222,0.00000,0.00000,0.12500,0.00000,0.68750,0.68750,0.00000,1.37500,0.45000,0.00000,0.20000,0.70000,0.00000,0.00000))

type 2 side 0
[1,45]((0.00000,0.00000,0.05556,-0.05556,0.00000,-0.05556,0.05556,0.00000,0.00000,0.00000,0.00000,0.00000,0.00000,0.00000,0.00000,0.00000,0.00000,0.00000,0.03704,0.00000,0.01852,0.01852,0.00000,0.03704,0.00000,0.00000,-0.02778,0.02778,0.00000,0.02778,-0.02778,0.00000,0.00000,0.00000,0.00000,0.00000,0.00000,0.00000,0.00000,0.00000,0.00000,0.00000,0.00000,0.00000,0.00000))
[1,90]((0.00000,0.00000,0.00000,0.00000,0.00000,-0.16667,-0.16667,-0.00000,-0.16667,-0.16667,-0.00000,-0.16667,-0.16667,0.00000,0.00000,0.00000,0.00000,0.00000,0.00000,0.00000,0.11111,0.00000,0.00000,0.05556,0.05556,0.00000,0.05556,-0.05556,-0.00000,-0.05556,-0.05556,0.00000,0.00000,-0.11111,0.00000,0.00000,0.00000,0.00000,0.00000,0.00000,0.00000,0.00000,0.00000,0.00000,0.00000,0.00000,0.00000,0.00000,0.00000,0.00000,0.00000,0.00000,0.00000,0.08333,0.08333,0.00000,0.08333,0.08333,0.00000,0.08333,0.08333,0.00000,0.00000,0.00000,0.00000,0.00000,0.03704,0.00000,0.01852,0.07407,0.00000,0.03704,0.01852,0.00000,0.03704,0.03704,0.00000,0.07407,0.07407,0.00000,0.03704,0.03704,0.00000,0.01852,0.03704,0.00000,0.07407,0.01852,0.00000,0.03704))

type 1 side 0
[1,15]((0.16667,-0.16667,0.00000,0.05556,0.05556,-0.11111,-0.11111,0.11111,0.00000,-0.04861,-0.04861,0.09722,0.06667,-0.06667,0.00000))
[1,30]((0.16667,0.16667,-0.33333,-0.16667,0.33333,-0.16667,0.50000,-0.50000,0.00000,0.16667,-0.33333,0.16667,0.07407,0.07407,-0.14815,0.20370,-0.12963,-0.07407,-0.68750,0.68750,0.00000,-0.27083,0.41667,-0.14583,-0.23333,-0.23333,0.46667,-0.21667,-0.01667,0.23333))

type 1 side 1
[1,15]((0.00000,0.16667,-0.16667,-0.11111,0.05556,0.05556,0.00000,-0.11111,0.11111,0.09722,-0.04861,-0.04861,0.00000,0.06667,-0.06667))
[1,30]((0.16667,0.16667,-0.33333,-0.16667,0.33333,-0.16667,-0.16667,-0.16667,0.33333,-0.16667,0.33333,-0.16667,0.07407,-0.20370,0.12963,-0.07407,-0.12963,0.20370,0.14583,0.27083,-0.41667,0.14583,-0.41667,0.27083,-0.23333,0.21667,0.01667,0.23333,-0.01667,-0.21667))

type 1 side 2
[1,15]((0.16667,0.00000,-0.16667,0.05556,-0.11111,0.05556,-0.11111,0.00000,0.11111,-0.04861,0.09722,-0.04861,0.06667,0.00000,-0.06667))
[1,30]((-0.16667,-0.16667,0.33333,0.16667,-0.33333,0.16667,0.16667,0.16667,-0.33333,0.50000,0.00000,-0.50000,0.20370,-0.07407,-0.12963,0.07407,-0.14815,0.07407,-0.27083,-0.14583,0.41667,-0.68750,0.00000,0.68750,-0.21667,0.23333,-0.01667,-0.23333,0.46667,-0.23333))

type 2 side 0
[1,45]((-0.01852,-0.01852,0.03704,0.03704,-0.01852,-0.01852,-0.01852,0.03704,-0.01852,0.00000,0.00000,0.00000,0.00000,0.00000,0.00000,0.00000,0.00000,0.00000,-0.01852,0.01852,0.00000,-0.01852,0.00000,0.01852,0.00926,0.00926,-0.01852,-0.01852,0.00926,0.00926,0.00926,-0.01852,0.00926,0.00000,0.00000,0.00000,0.00000,0.00000,0.00000,0.00000,0.00000,0.00000,0.00000,0.00000,0.00000))
[1,90]((0.00000,0.00000,0.00000,0.05556,0.05556,-0.11111,0.11111,-0.05556,-0.05556,0.11111,-0.05556,-0.05556,0.05556,-0.11111,0.05556,0.00000,0.00000,0.00000,-0.03704,-0.03704,0.07407,-0.01852,-0.01852,0.03704,-0.03704,0.01852,0.01852,0.03704,-0.01852,-0.01852,0.01852,-0.03704,0.01852,0.03704,-0.07407,0.03704,0.00000,0.00000,0.00000,0.00000,0.00000,0.00000,0.00000,0.00000,0.00000,0.00000,0.00000,0.00000,0.00000,0.00000,0.00000,-0.02778,-0.02778,0.05556,-0.05556,0.02778,0.02778,-0.05556,0.02778,0.02778,-0.02778,0.05556,-0.02778,0.00000,0.00000,0.00000,-0.01852,0.01852,0.00000,-0.03704,0.03704,0.00000,-0.01852,0.00000,0.01852,-0.03704,0.00000,0.03704,-0.03704,0.03704,0.00000,-0.01852,0.01852,0.00000,-0.03704,0.00000,0.03704,-0.01852,0.00000,0.01852))

type 1 side 0
[1,15]((0.00000,-0.16667,-0.33333,0.00000,-0.16667,0.00000,0.00000,0.11111,0.22222,0.00000,0.14583,0.00000,0.00000,-0.06667,-0.13333))
[1,30]((0.00000,-0.50000,0.00000,0.00000,0.00000,0.50000,-0.00000,-0.50000,-1.00000,-0.00000,0.00000,-0.50000,0.00000,-0.22222,0.00000,-0.00000,-0.27778,-0.33333,0.00000,0.68750,1.37500,0.00000,0.12500,0.68750,0.00000,0.70000,0.00000,0.00000,0.45000,0.20000))

type 1 side 1
[1,15]((0.00000,0.16667,-0.16667,0.00000,0.16667,0.16667,0.00000,-0.11111,0.11111,0.00000,-0.14583,-0.14583,0.00000,0.06667,-0.06667))
[1,30]((0.00000,0.50000,-0.00000,0.00000,0.00000,-0.50000,0.00000,0.50000,0.00000,0.00000,0.00000,0.50000,0.00000,-0.05556,0.27778,0.00000,-0.27778,0.05556,0.00000,-0.56250,0.12500,0.00000,0.12500,-0.56250,-0.00000,-0.25000,-0.45000,0.00000,0.45000,0.25000))

type 1 side 2
[1,15]((0.00000,0.33333,0.16667,0.00000,0.00000,-0.16667,0.00000,-0.22222,-0.11111,0.00000,0.00000,0.14583,0.00000,0.13333,0.06667))
[1,30]((0.00000,-0.50000,0.00000,0.00000,0.00000,0.50000,-0.00000,-0.50000,0.00000,-0.00000,-1.00000,-0.50000,0.00000,0.33333,0.27778,0.00000,0.00000,0.22222,0.00000,0.68750,0.12500,0.00000,1.37500,0.68750,-0.00000,-0.20000,-0.45000,0.00000,0.00000,-0.70000))

type 2 side 0
[1,45]((0.00000,0.05556,0.00000,0.00000,-0.05556,-0.05556,0.00000,0.00000,0.05556,0.00000,0.00000,0.00000,0.00000,0.00000,0.00000,0.00000,0.00000,0.00000,0.00000,0.01852,0.03704,0.00000,0.03704,0.01852,0.00000,-0.02778,0.00000,0.00000,0.02778,0.02778,0.00000,0.00000,-0.02778,0.00000,0.00000,0.00000,0.00000,0.00000,0.00000,0.00000,0.00000,0.00000,0.00000,0.00000,0.00000))
[1,90]((0.00000,0.00000,0.00000,0.00000,-0.16667,0.00000,-0.00000,-0.16667,-0.16667,-0.00000,-0.16667,-0.16667,0.00000,0.00000,-0.16667,0.00000,0.00000,0.00000,0.00000,0.11111,0.00000,0.00000,0.05556,0.00000,0.00000,0.05556,0.05556,-0.00000,-0.05556,-0.05556,0.00000,0.00000,-0.05556,0.00000,0.00000,-0.11111,0.00000,0.00000,0.00000,0.00000,0.00000,0.00000,0.00000,0.00000,0.00000,0.00000,0.00000,0.00000,0.00000,0.00000,0.00000,0.00000,0.08333,0.00000,0.00000,0.08333,0.08333,0.00000,0.08333,0.08333,0.00000,0.00000,0.08333,0.00000,0.00000,0.00000,0.00000,0.01852,0.03704,0.00000,0.03704,0.07407,0.00000,0.03704,0.01852,0.00000,0.07407,0.03704,0.00000,0.03704,0.07407,0.00000,0.01852,0.03704,0.00000,0.07407,0.03704,0.00000,0.03704,0.01852))

type 1 side 0
[1,15]((0.16667,0.33333,0.00000,-0.16667,0.00000,0.00000,-0.11111,-0.22222,0.00000,0.14583,0.00000,0.00000,0.06667,0.13333,0.00000))
[1,30]((0.50000,-0.00000,0.00000,0.00000,-0.50000,0.00000,-0.50000,-1.00000,-0.00000,0.00000,-0.50000,-0.00000,0.22222,0.00000,0.00000,0.27778,0.33333,0.00000,0.68750,1.37500,0.00000,0.12500,0.68750,0.00000,-0.70000,0.00000,0.00000,-0.45000,-0.20000,-0.00000))

type 1 side 1
[1,15]((0.16667,-0.16667,0.00000,0.16667,0.16667,0.00000,-0.11111,0.11111,0.00000,-0.14583,-0.14583,0.00000,0.06667,-0.06667,0.00000))
[1,30]((0.50000,-0.00000,0.00000,0.00000,-0.50000,0.00000,0.50000,0.00000,0.00000,0.00000,0.50000,0.00000,-0.05556,0.27778,0.00000,-0.27778,0.05556,0.00000,-0.56250,0.12500,0.00000,0.12500,-0.56250,0.00000,-0.25000,-0.45000,-0.00000,0.45000,0.25000,0.00000))

type 1 side 2
[1,15]((-0.33333,-0.16667,0.00000,0.00000,-0.16667,0.00000,0.22222,0.11111,0.00000,0.00000,0.14583,0.00000,-0.13333,-0.06667,0.00000))
[1,30]((0.50000,0.00000,0.00000,0.00000,-0.50000,-0.00000,-0.50000,0.00000,-0.00000,-1.00000,-0.50000,-0.00000,-0.33333,-0.27778,-0.00000,0.00000,-0.22222,0.00000,0.68750,0.12500,0.00000,1.37500,0.68750,0.00000,0.20000,0.45000,0.00000,0.00000,0.70000,0.00000))

type 2 side 0
[1,45]((0.05556,0.00000,0.00000,-0.05556,-0.05556,0.00000,0.00000,0.05556,0.00000,0.00000,0.00000,0.00000,0.00000,0.00000,0.00000,0.00000,0.00000,0.00000,0.01852,0.03704,0.00000,0.03704,0.01852,0.00000,-0.02778,0.00000,0.00000,0.02778,0.02778,0.00000,0.00000,-0.02778,0.00000,0.00000,0.00000,0.00000,0.00000,0.00000,0.00000,0.00000,0.00000,0.00000,0.00000,0.00000,0.00000))
[1,90]((0.00000,0.00000,0.00000,-0.16667,0.00000,0.00000,-0.16667,-0.16667,-0.00000,-0.16667,-0.16667,-0.00000,0.00000,-0.16667,0.00000,0.00000,0.00000,0.00000,0.11111,0.00000,0.00000,0.05556,0.00000,0.00000,0.05556,0.05556,0.00000,-0.05556,-0.05556,-0.00000,0.00000,-0.05556,0.00000,0.00000,-0.11111,0.00000,0.00000,0.00000,0.00000,0.00000,0.00000,0.00000,0.00000,0.00000,0.00000,0.00000,0.00000,0.00000,0.00000,0.00000,0.00000,0.08333,0.00000,0.00000,0.08333,0.08333,0.00000,0.08333,0.08333,0.00000,0.00000,0.08333,0.00000,0.00000,0.00000,0.00000,0.01852,0.03704,0.00000,0.03704,0.07407,0.00000,0.03704,0.01852,0.00000,0.07407,0.03704,0.00000,0.03704,0.07407,0.00000,0.01852,0.03704,0.00000,0.07407,0.03704,0.00000,0.03704,0.01852,0.00000))

type 1 side 0
[1,15]((-0.50000,0.00000,0.00000,0.00000,0.00000,0.00000,0.33333,0.00000,0.00000,0.00000,0.00000,0.00000,-0.20000,0.00000,0.00000))

type 1 side 0
[1,15]((0.25000,-0.25000,0.00000,0.00000,0.00000,0.00000,-0.16667,0.16667,0.00000,0.00000,0.00000,0.00000,0.10000,-0.10000,0.00000))

type 1 side 0
[1,15]((0.00000,0.50000,0.00000,0.00000,0.00000,0.00000,0.00000,-0.33333,0.00000,0.00000,0.00000,0.00000,0.00000,0.20000,0.00000))

type 1 side 0
[1,15]((0.00000,0.00000,-0.50000,0.00000,0.00000,0.00000,0.00000,0.00000,0.33333,0.00000,0.00000,0.00000,0.00000,0.00000,-0.20000))

type 1 side 0
[1,15]((0.25000,0.00000,-0.25000,0.00000,0.00000,0.00000,-0.16667,0.00000,0.16667,0.00000,0.00000,0.00000,0.10000,0.00000,-0.10000))

type 1 side 0
[1,15]((0.00000,0.25000,-0.25000,0.00000,0.00000,0.00000,0.00000,-0.16667,0.16667,0.00000,0.00000,0.00000,0.00000,0.10000,-0.10000))
